Progdata Lab 3
…
#the code above creates x in the table but this does not save in order for me to compute the difference, so I am writing out the vector with life expectancies with 1977 - 1972 by writing the life expectancies for Australia, Cuba, and Greece in 1972 followed by their life expectancies in 1977 and then using the lag function to get 1977-1972

x <- c(71.930, 70.723, 72.340, 73.490, 72.649, 73.680)

diff(x, lag = 3)

## [1] 1.560 1.926 1.340

##1.4

gapminder |> 
  group_by(country) |> 
   mutate(max_gdp = max(gdpPercap)) 

## # A tibble: 1,704 x 7
## # Groups:   country [142]
##    country     continent  year lifeExp      pop gdpPercap max_gdp
##    <fct>       <fct>     <int>   <dbl>    <int>     <dbl>   <dbl>
##  1 Afghanistan Asia       1952    28.8  8425333      779.    978.
##  2 Afghanistan Asia       1957    30.3  9240934      821.    978.
##  3 Afghanistan Asia       1962    32.0 10267083      853.    978.
##  4 Afghanistan Asia       1967    34.0 11537966      836.    978.
##  5 Afghanistan Asia       1972    36.1 13079460      740.    978.
##  6 Afghanistan Asia       1977    38.4 14880372      786.    978.
##  7 Afghanistan Asia       1982    39.9 12881816      978.    978.
##  8 Afghanistan Asia       1987    40.8 13867957      852.    978.
##  9 Afghanistan Asia       1992    41.7 16317921      649.    978.
## 10 Afghanistan Asia       1997    41.8 22227415      635.    978.
## # ... with 1,694 more rows
…
tibble(iris)

## # A tibble: 150 x 5
##    Sepal.Length Sepal.Width Petal.Length Petal.Width Species
##           <dbl>       <dbl>        <dbl>       <dbl> <fct>  
##  1          5.1         3.5          1.4         0.2 setosa 
##  2          4.9         3            1.4         0.2 setosa 
##  3          4.7         3.2          1.3         0.2 setosa 
##  4          4.6         3.1          1.5         0.2 setosa 
##  5          5           3.6          1.4         0.2 setosa 
##  6          5.4         3.9          1.7         0.4 setosa 
##  7          4.6         3.4          1.4         0.3 setosa 
##  8          5           3.4          1.5         0.2 setosa 
##  9          4.4         2.9          1.4         0.2 setosa 
## 10          4.9         3.1          1.5         0.1 setosa 
## # ... with 140 more rows
…
#correct
filter(gapminder, country %in% c("Rwanda", "Afghanistan"))

## # A tibble: 24 x 6
##    country     continent  year lifeExp      pop gdpPercap
##    <fct>       <fct>     <int>   <dbl>    <int>     <dbl>
##  1 Afghanistan Asia       1952    28.8  8425333      779.
##  2 Afghanistan Asia       1957    30.3  9240934      821.
##  3 Afghanistan Asia       1962    32.0 10267083      853.
##  4 Afghanistan Asia       1967    34.0 11537966      836.
##  5 Afghanistan Asia       1972    36.1 13079460      740.
##  6 Afghanistan Asia       1977    38.4 14880372      786.
##  7 Afghanistan Asia       1982    39.9 12881816      978.
##  8 Afghanistan Asia       1987    40.8 13867957      852.
##  9 Afghanistan Asia       1992    41.7 16317921      649.
## 10 Afghanistan Asia       1997    41.8 22227415      635.
## # ... with 14 more rows
…
